{
  "minimumVersion" : 1,
  "packages" : [
    {
      "title" : "MMO RPG",
      "name" : "MMO RPG",
      "version" : "2020-05-12-16-03-59",
      "location" : "mmo-rpg.json",
      "priority" : 0
    }
  ]
}